2.675054766071492396e-01
2.887075331963854241e-01
3.109022661419800770e-01
3.340265889246294417e-01
3.580004075249787476e-01
3.827269837614147852e-01
4.080939425513265273e-01
4.339749435307864722e-01
4.602319920795100439e-01
4.867183158198605808e-01
5.132816841630432059e-01
5.397680079062763259e-01
5.660250564594737632e-01
5.919060574432822852e-01
6.172730162362727313e-01
6.419995924743115978e-01
6.659734110752388858e-01
6.890977338580084322e-01
7.112924668036133546e-01
7.324945233928500388e-01
